JFoXXIbVWg = 7717
WeiSBZbFMP = 9977
UNNcqPMAoK = 5079
IyEnWikyft = 0149
HsiiglgCVG = 3393
iHONYrWetE = 4262
JoGdePVCdG = 8576
nwOrxYvvmI = 3179
SAZOHrHggD = 8101
wXkBQdxRzC = 3112
YBqkweMAPZ = 7709
OYesoVHXTl = 2690
vMfbTKBQSx = 1916
vlIYQivgky = 6932
oBKPzcacYH = 0513
ARwgfPMzwE = 0520
tUgAKbdjXL = 6566
cdZWdWPLqp = 1593
SXHbEyDTzE = 2022
XlIRvrQHOh = 6194
XIluLgQWJS = 1180
GAVXuxSrIm = 1804
sHrfQtdiNF = 4756
moVqrQeRMt = 0648
sbutFZZfmq = 8434
uMXskrJpQi = 2093
DDcelmfeTa = 3969
LamENCnkuP = 1991
tOnXYrDNhN = 7743
wUXaEGJwKi = 5108
OAcrNkoxSj = 9498
JkfnTkhjNO = 5676
JaZyFIzrNu = 3884
oKqEJPgkQq = 8398
ncdCNfdKuQ = 6657
tawDsKKJqL = 9308
oBvRkRcvOD = 2061
aBqGazzMVT = 4508
jFpvQBEpHZ = 8673
BPQfhcUHau = 2847
